Mini Project #2 – STA 9750 2024 Submission Material
…
Animation_Director <- TITLE_PRINCIPALS|>
  filter(category == "director")|>
  inner_join(Animation_Project, by = "tconst") |>
  inner_join(NAME_BASICS, by = "nconst") |>
  group_by(primaryName) |>
  summarise(success_count = n())|>
  arrange(desc(success_count)) 
  print(Animation_Director)

# A tibble: 39 × 2
   primaryName     success_count
   <chr>                   <int>
 1 Hayao Miyazaki              6
 2 Brad Bird                   3
 3 Haruo Sotozaki              3
 4 Pete Docter                 3
 5 Andrew Stanton              2
 6 Lee Unkrich                 2
 7 Taichi Ishidate             2
 8 Adam Elliot                 1
 9 Bob Persichetti             1
10 Béla Ternovszky             1
# ℹ 29 more rows
…
