Mini Project #3 – STA 9750 2024 Submission Material
…
top_with_fusion_all_time <- fusion_analysis |>
  group_by(year, district) |>
  filter(total_votes_all_lines == max(total_votes_all_lines)) |>
  select(year, district, candidate, total_votes_all_lines)
print(top_with_fusion_all_time)

# A tibble: 1,220 × 4
# Groups:   year, district [1,220]
    year district candidate          total_votes_all_lines
   <int>    <int> <chr>                              <int>
 1  1976        0 MARK ANDREWS                      181018
 2  1976        1 MANUEL LUJAN JR                   162587
 3  1976        2 AL ULLMAN                         173313
 4  1976        3 JAMES M COLLINS                   171343
 5  1976        4 CLEMENT J ZABLOCKI                172166
 6  1976        5 RONALD A SARASIN                  157009
 7  1976        6 C W BILL YOUNG                    151371
 8  1976        7 BILL ARCHER                       193127
 9  1976        8 JAMES L OBERSTAR                  206755
10  1976        9 ROBERT W KASTEN JR                163791
# ℹ 1,210 more rows

top_without_fusion_all_time <- fusion_analysis |>
  group_by(year, district) |>
  filter(major_party_votes == max(major_party_votes)) |>
  select(year, district, candidate, major_party_votes)
print(top_without_fusion_all_time)

# A tibble: 1,220 × 4
# Groups:   year, district [1,220]
    year district candidate          major_party_votes
   <int>    <int> <chr>                          <int>
 1  1976        0 MARK ANDREWS                  181018
 2  1976        1 MANUEL LUJAN JR               162587
 3  1976        2 AL ULLMAN                     173313
 4  1976        3 JAMES M COLLINS               171343
 5  1976        4 CLEMENT J ZABLOCKI            172166
 6  1976        5 RONALD A SARASIN              157009
 7  1976        6 C W BILL YOUNG                151371
 8  1976        7 BILL ARCHER                   193127
 9  1976        8 JAMES L OBERSTAR              206755
10  1976        9 ROBERT W KASTEN JR            163791
# ℹ 1,210 more rows
…
