MP1 – STA 9750 2024 Submission Material
…
USAGE_2022_ANNUAL <- USAGE |>
  filter(year(month) == 2022) |>
  group_by(`NTD ID`, `Agency`, `metro_area`, `Mode`) |>
  summarize(
    UPT = sum(UPT, na.rm = TRUE),
    VRM = sum(VRM, na.rm = TRUE)
  ) |>
  ungroup()

`summarise()` has grouped output by 'NTD ID', 'Agency', 'metro_area'. You can
override using the `.groups` argument.

print(USAGE_2022_ANNUAL)

# A tibble: 40 × 6
   `NTD ID` Agency                                metro_area Mode     UPT    VRM
      <int> <chr>                                 <chr>      <chr>  <dbl>  <dbl>
 1       23 City of Seattle                       Seattle--… Mono… 151183 2.09e4
 2       25 Salem Area Mass Transit District      Salem, OR  Vanp…  10890 5.80e4
 3       46 City of Wilsonville                   Portland,… Bus    14073 5.20e4
 4    10055 Connecticut Department of Transporta… New Haven… Bus   717160 3.91e5
 5    11238 Bay State LLC                         Boston, M… Ferr…  26675 1.34e4
 6    11239 Hyannis Harbor Tours, Inc.            Barnstabl… Ferr… 153914 2.93e4
 7    20223 Cape May Lewes Ferry                  Atlantic … Ferr… 132412 9.28e3
 8    20228 Enterprise Holdings, LLC              Syracuse,… Vanp…    484 2.81e3
 9    30034 Maryland Transit Administration       Baltimore… Dema… 165909 1.11e7
10    30076 Williamsburg Area Transit Authority   Williamsb… Dema…   1471 1.57e4
# ℹ 30 more rows
…
